XXXXXXXXXXXXXXXXXXXXX
X             X X X X
XXX XXX X X XXX X X X
X     X X X X X     X
X X XXXXX XXX X XXXXX
X X   X   X         X
XXX XXX X X XXX XXXXX
X     X X     X     X
X XXX X X X X XXX XXX
X   X X X X X   X   X
X XXX X XXXXXXX XXX X
X X   X     X X   X X
X XXX XXXXXXX X XXX X
X   X         X X X X
X XXXXX XXX XXX X XXX
  X X     X   X   X X
X X X XXXXX X XXXXX X
X X       X X       X
X X X X XXXXX XXX X X
X X X X     X   X X  
XXXXXXXXXXXXXXXXXXXXX
